armv7 LTS54 5.4.182-armv7-x64
armv7 LTS510 5.10.131-armv7-x64
bone-rt LTS419 4.19.232-bone-rt-r75
omap-psp V514X 5.14.21-bone25
omap-psp LTS515 5.15.49-bone26
ti LTS414 4.14.108-ti-r144
ti-rt LTS414 4.14.108-ti-rt-r144
ti LTS419 4.19.94-ti-r73
ti-rt LTS419 4.19.94-ti-rt-r73
ti LTS54 5.4.106-ti-r41
ti-rt LTS54 5.4.106-ti-rt-r41
ti LTS510 5.10.120-ti-r48
ti-rt LTS510 5.10.120-ti-rt-r48
ti-arm64 LTS510 5.10.120-ti-arm64-r57
riscv64 V514X 5.14.0-rc3-riscv64-r4
